sim/sim.vcd
$date
	Sun Nov 17 02:19:23 2024
$end
$version
	Icarus Verilog
$end
$timescale
	1ps
$end
$scope module sim_test $end
$var wire 32 ! WriteData [31:0] $end
$var wire 1 " MemWrite $end
$var wire 32 # DataAdr [31:0] $end
$var reg 1 $ Clk $end
$var reg 1 % reset $end
$scope module _top $end
$var wire 1 $ Clk $end
$var wire 1 % reset $end
$var wire 32 & WriteData [31:0] $end
$var wire 32 ' ReadData [31:0] $end
$var wire 32 ( PC [31:0] $end
$var wire 1 " MemWrite $end
$var wire 32 ) Instr [31:0] $end
$var wire 32 * DataAdr [31:0] $end
$scope module dmem $end
$var wire 1 $ Clk $end
$var wire 32 + rd [31:0] $end
$var wire 1 " we $end
$var wire 32 , wd [31:0] $end
$var wire 32 - a [31:0] $end
$upscope $end
$scope module imem $end
$var wire 32 . rd [31:0] $end
$var wire 32 / a [31:0] $end
$upscope $end
$scope module rvpipe $end
$var wire 1 $ Clk $end
$var wire 32 0 Instr [31:0] $end
$var wire 32 1 ReadData [31:0] $end
$var wire 1 % reset $end
$var wire 1 2 Zero $end
$var wire 32 3 WriteData [31:0] $end
$var wire 2 4 ResultSrc [1:0] $end
$var wire 1 5 RegWrite $end
$var wire 1 6 PCSrc $end
$var wire 32 7 PC [31:0] $end
$var wire 1 " MemWrite $end
$var wire 1 8 Jump $end
$var wire 2 9 ImmSrc [1:0] $end
$var wire 1 : ALUSrc $end
$var wire 32 ; ALUResult [31:0] $end
$var wire 3 < ALUControl [2:0] $end
$scope module c $end
$var wire 1 6 PCSrc $end
$var wire 3 = funct3 [2:0] $end
$var wire 1 > funct7b5 $end
$var wire 7 ? op [6:0] $end
$var wire 1 2 Zero $end
$var wire 2 @ ResultSrc [1:0] $end
$var wire 1 5 RegWrite $end
$var wire 1 " MemWrite $end
$var wire 1 8 Jump $end
$var wire 2 A ImmSrc [1:0] $end
$var wire 1 B Branch $end
$var wire 1 : ALUSrc $end
$var wire 2 C ALUOp [1:0] $end
$var wire 3 D ALUControl [2:0] $end
$scope module ad $end
$var wire 1 E RtypeSub $end
$var wire 3 F funct3 [2:0] $end
$var wire 1 > funct7b5 $end
$var wire 1 G opb5 $end
$var wire 2 H ALUOp [1:0] $end
$var reg 3 I ALUControl [2:0] $end
$upscope $end
$scope module md $end
$var wire 7 J op [6:0] $end
$var wire 2 K ResultSrc [1:0] $end
$var wire 1 5 RegWrite $end
$var wire 1 " MemWrite $end
$var wire 1 8 Jump $end
$var wire 2 L ImmSrc [1:0] $end
$var wire 1 B Branch $end
$var wire 1 : ALUSrc $end
$var wire 2 M ALUOp [1:0] $end
$var reg 11 N controls [10:0] $end
$upscope $end
$upscope $end
$scope module dp $end
$var wire 3 O ALUControl [2:0] $end
$var wire 1 : ALUSrc $end
$var wire 2 P ImmSrc [1:0] $end
$var wire 32 Q Instr [31:0] $end
$var wire 1 6 PCSrc $end
$var wire 32 R ReadData [31:0] $end
$var wire 1 5 RegWrite $end
$var wire 2 S ResultSrc [1:0] $end
$var wire 1 $ clk $end
$var wire 1 % reset $end
$var wire 32 T WriteData [31:0] $end
$var wire 32 U SrcB [31:0] $end
$var wire 32 V SrcA [31:0] $end
$var wire 32 W Result [31:0] $end
$var wire 32 X PCTarget [31:0] $end
$var wire 32 Y PCPlus4 [31:0] $end
$var wire 32 Z PCNext [31:0] $end
$var wire 32 [ PC [31:0] $end
$var wire 32 \ ImmExt [31:0] $end
$var wire 32 ] ALUResult [31:0] $end
$var reg 1 2 Zero $end
$scope module alu $end
$var wire 3 ^ ALUControl [2:0] $end
$var wire 1 2 Zero $end
$var wire 32 _ SrcB [31:0] $end
$var wire 32 ` SrcA [31:0] $end
$var reg 32 a ALUResult [31:0] $end
$upscope $end
$scope module ext $end
$var wire 2 b immsrc [1:0] $end
$var wire 32 c instr [31:0] $end
$var wire 1 d instr7 $end
$var wire 7 e instr31_25 [6:0] $end
$var wire 12 f instr31_20 [11:0] $end
$var wire 1 g instr31 $end
$var wire 6 h instr30_25 [5:0] $end
$var wire 10 i instr30_21 [9:0] $end
$var wire 1 j instr20 $end
$var wire 8 k instr19_12 [7:0] $end
$var wire 4 l instr11_8 [3:0] $end
$var wire 5 m instr11_7 [4:0] $end
$var reg 32 n immext [31:0] $end
$upscope $end
$scope module pcadd4 $end
$var wire 32 o b [31:0] $end
$var wire 32 p out [31:0] $end
$var wire 32 q a [31:0] $end
$upscope $end
$scope module pcaddbranch $end
$var wire 32 r b [31:0] $end
$var wire 32 s out [31:0] $end
$var wire 32 t a [31:0] $end
$upscope $end
$scope module pcmux $end
$var wire 32 u d0 [31:0] $end
$var wire 32 v d1 [31:0] $end
$var wire 1 6 s $end
$var wire 32 w out [31:0] $end
$var parameter 32 x WIDTH $end
$upscope $end
$scope module pcreg $end
$var wire 1 $ clk $end
$var wire 32 y d [31:0] $end
$var wire 1 % reset $end
$var parameter 32 z WIDTH $end
$var reg 32 { q [31:0] $end
$upscope $end
$scope module resultmux $end
$var wire 32 | d0 [31:0] $end
$var wire 32 } d1 [31:0] $end
$var wire 32 ~ d2 [31:0] $end
$var wire 2 !" s [1:0] $end
$var wire 32 "" out [31:0] $end
$var parameter 32 #" WIDTH $end
$upscope $end
$scope module rf $end
$var wire 1 $ clk $end
$var wire 5 $" read_reg1 [4:0] $end
$var wire 5 %" read_reg2 [4:0] $end
$var wire 32 &" write_data [31:0] $end
$var wire 1 5 write_enable $end
$var wire 5 '" write_reg [4:0] $end
$var wire 32 (" read_data2 [31:0] $end
$var wire 32 )" read_data1 [31:0] $end
$upscope $end
$scope module srcbmux $end
$var wire 32 *" d0 [31:0] $end
$var wire 32 +" d1 [31:0] $end
$var wire 1 : s $end
$var wire 32 ," out [31:0] $end
$var parameter 32 -" WIDTH $end
$upscope $end
$upscope $end
$upscope $end
$upscope $end
$upscope $end
$enddefinitions $end
$comment Show the parameter values. $end
$dumpall
b100000 -"
b100000 #"
b100000 z
b100000 x
$end
#0
$dumpvars
b101 ,"
b101 +"
bx *"
b0 )"
bx ("
b10 '"
bx &"
b101 %"
b0 $"
bx ""
b0 !"
b100 ~
bx }
bx |
b0 {
b100 y
b100 w
b101 v
b100 u
b0 t
b101 s
b101 r
b0 q
b100 p
b100 o
b101 n
b10 m
b1 l
b0 k
1j
b10 i
b0 h
0g
b101 f
b0 e
0d
b10100000000000100010011 c
b0 b
bx a
bx `
b101 _
b0 ^
bx ]
b101 \
b0 [
b100 Z
b100 Y
b101 X
b0 W
bx V
b101 U
bx T
b0 S
bx R
b10100000000000100010011 Q
b0 P
b0 O
b10010000100 N
b10 M
b0 L
b0 K
b10011 J
b0 I
b10 H
0G
b0 F
0E
b0 D
b10 C
0B
b0 A
b0 @
b10011 ?
0>
b0 =
b0 <
bx ;
1:
b0 9
08
b0 7
06
15
b0 4
bx 3
x2
bx 1
b10100000000000100010011 0
b0 /
b10100000000000100010011 .
bx -
bx ,
bx +
bx *
b10100000000000100010011 )
b0 (
bx '
bx &
1%
0$
bx #
0"
bx !
$end
#1000
1$
#2000
0$
#3000
1$
#4000
0$
#5000
1$
#6000
0$
#7000
1$
#8000
0$
#9000
1$
#10000
0$
#11000
1$
#12000
0$
#13000
1$
#14000
0$
#15000
1$
#16000
0$
#17000
1$
#18000
0$
#19000
1$
#20000
0$
0%
#21000
b1100 U
b1100 _
b1100 ,"
b1100 \
b1100 n
b1100 r
b1100 +"
b1100 %"
b11 '"
b1100 f
1d
0j
b11 m
b110 i
b1000 Z
b1000 w
b1000 y
b110000000000000110010011 )
b110000000000000110010011 .
b110000000000000110010011 0
b110000000000000110010011 Q
b110000000000000110010011 c
b10000 X
b10000 s
b10000 v
b1000 Y
b1000 p
b1000 u
b1000 ~
b100 (
b100 /
b100 7
b100 [
b100 q
b100 t
b100 {
1$
#22000
0$
#23000
b11111111111111111111111111110111 U
b11111111111111111111111111110111 _
b11111111111111111111111111110111 ,"
bx W
bx )"
b11111111111111111111111111110111 \
b11111111111111111111111111110111 n
b11111111111111111111111111110111 r
b11111111111111111111111111110111 +"
1>
b11 $"
b10111 %"
b111 '"
b111111110111 f
1g
1j
b1111111 e
b111 m
b111111 h
b11 l
b11000 k
b1111111011 i
b1100 Z
b1100 w
b1100 y
b11111111011100011000001110010011 )
b11111111011100011000001110010011 .
b11111111011100011000001110010011 0
b11111111011100011000001110010011 Q
b11111111011100011000001110010011 c
b11111111111111111111111111111111 X
b11111111111111111111111111111111 s
b11111111111111111111111111111111 v
b1100 Y
b1100 p
b1100 u
b1100 ~
b1000 (
b1000 /
b1000 7
b1000 [
b1000 q
b1000 t
b1000 {
1$
#24000
0$
#25000
bx 9
bx A
bx L
bx P
bx b
0:
bx U
bx _
bx ,"
1G
b1xx00000100 N
b11 <
b11 D
b11 I
b11 O
b11 ^
bx \
bx n
bx r
bx +"
b110011 ?
b110011 J
b110 =
b110 F
0>
b111 $"
b10 %"
b100 '"
b10 f
0g
0d
0j
b0 e
b100 m
b0 h
b10 l
b111110 k
b1 i
b10000 Z
b10000 w
b10000 y
b1000111110001000110011 )
b1000111110001000110011 .
b1000111110001000110011 0
b1000111110001000110011 Q
b1000111110001000110011 c
bx X
bx s
bx v
b10000 Y
b10000 p
b10000 u
b10000 ~
b1100 (
b1100 /
b1100 7
b1100 [
b1100 q
b1100 t
b1100 {
1$
#26000
0$
#27000
b10 <
b10 D
b10 I
b10 O
b10 ^
b111 =
b111 F
b11 $"
b100 %"
b101 '"
b100 f
1d
b101 m
b11111 k
b10 i
b10100 Z
b10100 w
b10100 y
b10000011111001010110011 )
b10000011111001010110011 .
b10000011111001010110011 0
b10000011111001010110011 Q
b10000011111001010110011 c
b10100 Y
b10100 p
b10100 u
b10100 ~
b10000 (
b10000 /
b10000 7
b10000 [
b10000 q
b10000 t
b10000 {
1$
#28000
0$
#29000
b0 <
b0 D
b0 I
b0 O
b0 ^
b0 =
b0 F
b101 $"
b101000 k
b11000 Z
b11000 w
b11000 y
b10000101000001010110011 )
b10000101000001010110011 .
b10000101000001010110011 0
b10000101000001010110011 Q
b10000101000001010110011 c
b11000 Y
b11000 p
b11000 u
b11000 ~
b10100 (
b10100 /
b10100 7
b10100 [
b10100 q
b10100 t
b10100 {
1$
#30000
0$
#31000
x6
b1001000 X
b1001000 s
b1001000 v
b110000 \
b110000 n
b110000 r
b110000 +"
b1 <
b1 D
b1 I
b1 O
b1 ^
05
b10 9
b10 A
b10 L
b10 P
b10 b
1B
b1 C
b1 H
b1 M
b1000001010 N
b1100011 ?
b1100011 J
b111 %"
b10000 '"
b100111 f
0d
1j
b1 e
b10000 m
b1 h
b1000 l
b10011 i
b0x0x1x00 Z
b0x0x1x00 w
b0x0x1x00 y
b10011100101000100001100011 )
b10011100101000100001100011 .
b10011100101000100001100011 0
b10011100101000100001100011 Q
b10011100101000100001100011 c
b11100 Y
b11100 p
b11100 u
b11100 ~
b11000 (
b11000 /
b11000 7
b11000 [
b11000 q
b11000 t
b11000 {
1$
#32000
0$
#33000
bx <
bx D
bx I
bx O
bx ^
x5
bx 9
bx A
bx L
bx P
bx b
x:
x"
bx 4
bx @
bx K
bx S
bx !"
xB
bx C
bx H
bx M
x8
xG
bx N
xE
bx \
bx n
bx r
bx +"
bx ?
bx J
bx =
bx F
x>
bx $"
bx %"
bx '"
bx f
xg
xd
xj
bx e
bx m
bx h
bx l
bx k
bx i
bx Z
bx w
bx y
bx )
bx .
bx 0
bx Q
bx c
bx X
bx s
bx v
bx Y
bx p
bx u
bx ~
b0x0x1x00 (
b0x0x1x00 /
b0x0x1x00 7
b0x0x1x00 [
b0x0x1x00 q
b0x0x1x00 t
b0x0x1x00 {
1$
#34000
0$
#35000
bx (
bx /
bx 7
bx [
bx q
bx t
bx {
1$
